Examples of Recursive Lists and Nested or Split Data Frames • repurrrsive
…
library(repurrrsive)
library(purrr)
(nms <- map_chr(got_chars, "name"))
#>  [1] "Theon Greyjoy"      "Tyrion Lannister"   "Victarion Greyjoy" 
#>  [4] "Will"               "Areo Hotah"         "Chett"             
#>  [7] "Cressen"            "Arianne Martell"    "Daenerys Targaryen"
#> [10] "Davos Seaworth"     "Arya Stark"         "Arys Oakheart"     
#> [13] "Asha Greyjoy"       "Barristan Selmy"    "Varamyr"           
#> [16] "Brandon Stark"      "Brienne of Tarth"   "Catelyn Stark"     
#> [19] "Cersei Lannister"   "Eddard Stark"       "Jaime Lannister"   
#> [22] "Jon Connington"     "Jon Snow"           "Aeron Greyjoy"     
#> [25] "Kevan Lannister"    "Melisandre"         "Merrett Frey"      
#> [28] "Quentyn Martell"    "Samwell Tarly"      "Sansa Stark"
map_dfr(got_chars, `[`, c("name", "gender", "culture", "born"))
#> # A tibble: 30 × 4
#>    name               gender culture    born                                    
#>    <chr>              <chr>  <chr>      <chr>                                   
#>  1 Theon Greyjoy      Male   "Ironborn" "In 278 AC or 279 AC, at Pyke"          
#>  2 Tyrion Lannister   Male   ""         "In 273 AC, at Casterly Rock"           
#>  3 Victarion Greyjoy  Male   "Ironborn" "In 268 AC or before, at Pyke"          
#>  4 Will               Male   ""         ""                                      
#>  5 Areo Hotah         Male   "Norvoshi" "In 257 AC or before, at Norvos"        
#>  6 Chett              Male   ""         "At Hag's Mire"                         
#>  7 Cressen            Male   ""         "In 219 AC or 220 AC"                   
#>  8 Arianne Martell    Female "Dornish"  "In 276 AC, at Sunspear"                
#>  9 Daenerys Targaryen Female "Valyrian" "In 284 AC, at Dragonstone"             
#> 10 Davos Seaworth     Male   "Westeros" "In 260 AC or before, at King's Landing"
#> # … with 20 more rows
…
Put the discog list into a list-column and use tidyr::hoist() to dig some info out of it.

tibble(disc = discog) %>% 
  hoist(disc, info = "basic_information") %>% 
  hoist(info,
       title = "title",
       year = "year",
       label = list("labels", 1, "name"),
       artist = list("artists", 1, "name")
  ) %>% 
  select(-disc, -info)
#> # A tibble: 155 × 4
#>    title                              year label                          artist
#>    <chr>                             <int> <chr>                          <chr> 
#>  1 Demo                               2015 Tobi Records (2)               Mollot
#>  2 Observant Com El Mon Es Destrueix  2013 La Vida Es Un Mus              Una B…
#>  3 I                                  2017 La Vida Es Un Mus              S.H.I…
#>  4 Oído Absoluto                      2017 La Vida Es Un Mus              Rata …
#>  5 A Cat's Cause, No Dogs Problem     2015 Katorga Works                  Ivy (…
#>  6 Tashme                             2019 High Fashion Industries        Tashme
#>  7 Demo                               2014 Mind Control Records (6)       Desgr…
#>  8 Let The Miracles Begin             2015 Not On Label (Phantom Head Se… Phant…
#>  9 Sub Space                          2017 Not On Label (Sub Space (2) S… Sub S…
#> 10 Demo                               2017 Prescience Tapes               Small…
#> # … with 145 more rows
…
Nested and split data frame examples

Use the Gapminder data in various forms to practice different styles of grouped computation.

library(dplyr)
library(purrr)
library(tibble)

## group_by() + summarize()
gap_simple %>% 
  group_by(country) %>%
  summarize(cor = cor(lifeExp, year))
#> # A tibble: 142 × 2
#>    country       cor
#>    <fct>       <dbl>
#>  1 Afghanistan 0.974
#>  2 Albania     0.954
#>  3 Algeria     0.993
#>  4 Angola      0.942
#>  5 Argentina   0.998
#>  6 Australia   0.990
#>  7 Austria     0.996
#>  8 Bahrain     0.983
#>  9 Bangladesh  0.995
#> 10 Belgium     0.997
#> # … with 132 more rows

## nest() + map_*() inside mutate()
gap_nested %>%
  mutate(cor = data %>% map_dbl(~ cor(.x$lifeExp, .x$year)))
#> # A tibble: 142 × 4
#>    country     continent data                cor
#>    <fct>       <fct>     <list>            <dbl>
#>  1 Afghanistan Asia      <tibble [12 × 4]> 0.974
#>  2 Albania     Europe    <tibble [12 × 4]> 0.954
#>  3 Algeria     Africa    <tibble [12 × 4]> 0.993
#>  4 Angola      Africa    <tibble [12 × 4]> 0.942
#>  5 Argentina   Americas  <tibble [12 × 4]> 0.998
#>  6 Australia   Oceania   <tibble [12 × 4]> 0.990
#>  7 Austria     Europe    <tibble [12 × 4]> 0.996
#>  8 Bahrain     Asia      <tibble [12 × 4]> 0.983
#>  9 Bangladesh  Asia      <tibble [12 × 4]> 0.995
#> 10 Belgium     Europe    <tibble [12 × 4]> 0.997
#> # … with 132 more rows

## split + map_*()
gap_split %>% 
  map_dbl(~ cor(.x$lifeExp, .x$year)) %>% 
  head()
#> Afghanistan     Albania     Algeria      Angola   Argentina   Australia 
#>   0.9735051   0.9542420   0.9925307   0.9422392   0.9977816   0.9897716

## split + map_*() + tibble::enframe()
gap_split %>% 
  map_dbl(~ cor(.x$lifeExp, .x$year)) %>% 
  enframe()
#> # A tibble: 142 × 2
#>    name        value
#>    <chr>       <dbl>
#>  1 Afghanistan 0.974
#>  2 Albania     0.954
#>  3 Algeria     0.993
#>  4 Angola      0.942
#>  5 Argentina   0.998
#>  6 Australia   0.990
#>  7 Austria     0.996
#>  8 Bahrain     0.983
#>  9 Bangladesh  0.995
#> 10 Belgium     0.997
#> # … with 132 more rows
…
