…
``` r
library(purrr)
(nms <- map_chr(got_chars, "name"))
#>  [1] "Arya Stark"         "Brandon Stark"      "Catelyn Stark"     
#>  [4] "Eddard Stark"       "Jon Snow"           "Sansa Stark"       
#>  [7] "Tyrion Lannister"   "Will"               "Daenerys Targaryen"
#> [10] "Theon Greyjoy"      "Cressen"            "Davos Seaworth"    
#> [13] "Jaime Lannister"    "Merrett Frey"       "Chett"             
#> [16] "Aeron Greyjoy"      "Arianne Martell"    "Arys Oakheart"     
#> [19] "Asha Greyjoy"       "Brienne of Tarth"   "Cersei Lannister"  
#> [22] "Victarion Greyjoy"  "Areo Hotah"         "Barristan Selmy"   
#> [25] "Jon Connington"     "Kevan Lannister"    "Melisandre"        
#> [28] "Quentyn Martell"    "Varamyr"
map_df(got_chars, `[`, c("name", "gender", "culture", "born"))
#> # A tibble: 29 × 4
#>                  name gender  culture                         born
#>                 <chr>  <chr>    <chr>                        <chr>
#> 1          Arya Stark Female Northmen     In 289 AC, at Winterfell
#> 2       Brandon Stark   Male Northmen     In 290 AC, at Winterfell
#> 3       Catelyn Stark Female Rivermen       In 264 AC, at Riverrun
#> 4        Eddard Stark   Male Northmen     In 263 AC, at Winterfell
#> 5            Jon Snow   Male Northmen                    In 283 AC
#> 6         Sansa Stark Female Northmen     In 286 AC, at Winterfell
#> 7    Tyrion Lannister   Male           In 273 AC, at Casterly Rock
#> 8                Will   Male                                      
#> 9  Daenerys Targaryen Female Valyrian    In 284 AC, at Dragonstone
#> 10      Theon Greyjoy   Male Ironborn In 278 AC or 279 AC, at Pyke
#> # ... with 19 more rows
```
…
## group_by() + summarize()
gap_simple %>% 
  group_by(country) %>%
  summarize(cor = cor(lifeExp, year))
#> # A tibble: 142 × 2
#>        country       cor
#>         <fctr>     <dbl>
#> 1  Afghanistan 0.9735051
#> 2      Albania 0.9542420
#> 3      Algeria 0.9925307
#> 4       Angola 0.9422392
#> 5    Argentina 0.9977816
#> 6    Australia 0.9897716
#> 7      Austria 0.9960592
#> 8      Bahrain 0.9832293
#> 9   Bangladesh 0.9946662
#> 10     Belgium 0.9972665
#> # ... with 132 more rows

## nest() + map_*() inside mutate()
gap_nested %>%
  mutate(cor = data %>% map_dbl(~ cor(.x$lifeExp, .x$year)))
#> # A tibble: 142 × 4
#>        country continent              data       cor
#>         <fctr>    <fctr>            <list>     <dbl>
#> 1  Afghanistan      Asia <tibble [12 × 4]> 0.9735051
#> 2      Albania    Europe <tibble [12 × 4]> 0.9542420
#> 3      Algeria    Africa <tibble [12 × 4]> 0.9925307
#> 4       Angola    Africa <tibble [12 × 4]> 0.9422392
#> 5    Argentina  Americas <tibble [12 × 4]> 0.9977816
#> 6    Australia   Oceania <tibble [12 × 4]> 0.9897716
#> 7      Austria    Europe <tibble [12 × 4]> 0.9960592
#> 8      Bahrain      Asia <tibble [12 × 4]> 0.9832293
#> 9   Bangladesh      Asia <tibble [12 × 4]> 0.9946662
#> 10     Belgium    Europe <tibble [12 × 4]> 0.9972665
#> # ... with 132 more rows

## split + map_*()
gap_split %>% 
  map_dbl(~ cor(.x$lifeExp, .x$year)) %>% 
  head()
#> Afghanistan     Albania     Algeria      Angola   Argentina   Australia 
#>   0.9735051   0.9542420   0.9925307   0.9422392   0.9977816   0.9897716

## split + map_*() + tibble::enframe()
gap_split %>% 
  map_dbl(~ cor(.x$lifeExp, .x$year)) %>% 
  enframe()
#> # A tibble: 142 × 2
#>           name     value
#>          <chr>     <dbl>
#> 1  Afghanistan 0.9735051
#> 2      Albania 0.9542420
#> 3      Algeria 0.9925307
#> 4       Angola 0.9422392
#> 5    Argentina 0.9977816
#> 6    Australia 0.9897716
#> 7      Austria 0.9960592
#> 8      Bahrain 0.9832293
#> 9   Bangladesh 0.9946662
#> 10     Belgium 0.9972665
#> # ... with 132 more rows
```
