Gapminder data frame in various forms — gap_simple • repurrrsive
…
gap_simple

gap_nested

gap_split

    Format

    An object of class tbl_df (inherits from tbl, data.frame) with 1704 rows and 6 columns.

    Examples

gap_simple
#> # A tibble: 1,704 × 6
#>    country     continent  year lifeExp      pop gdpPercap
#>    <fct>       <fct>     <int>   <dbl>    <int>     <dbl>
#>  1 Afghanistan Asia       1952    28.8  8425333      779.
#>  2 Afghanistan Asia       1957    30.3  9240934      821.
#>  3 Afghanistan Asia       1962    32.0 10267083      853.
#>  4 Afghanistan Asia       1967    34.0 11537966      836.
#>  5 Afghanistan Asia       1972    36.1 13079460      740.
#>  6 Afghanistan Asia       1977    38.4 14880372      786.
#>  7 Afghanistan Asia       1982    39.9 12881816      978.
#>  8 Afghanistan Asia       1987    40.8 13867957      852.
#>  9 Afghanistan Asia       1992    41.7 16317921      649.
#> 10 Afghanistan Asia       1997    41.8 22227415      635.
#> # … with 1,694 more rows
#> # ℹ Use `print(n = ...)` to see more rows
gap_nested
#> # A tibble: 142 × 3
#>    country     continent data             
#>    <fct>       <fct>     <list>           
#>  1 Afghanistan Asia      <tibble [12 × 4]>
#>  2 Albania     Europe    <tibble [12 × 4]>
#>  3 Algeria     Africa    <tibble [12 × 4]>
#>  4 Angola      Africa    <tibble [12 × 4]>
#>  5 Argentina   Americas  <tibble [12 × 4]>
#>  6 Australia   Oceania   <tibble [12 × 4]>
#>  7 Austria     Europe    <tibble [12 × 4]>
#>  8 Bahrain     Asia      <tibble [12 × 4]>
#>  9 Bangladesh  Asia      <tibble [12 × 4]>
#> 10 Belgium     Europe    <tibble [12 × 4]>
#> # … with 132 more rows
#> # ℹ Use `print(n = ...)` to see more rows
…
