Game of Thrones data • repurrrsive
…
library(purrr)
(nms <- map_chr(got_chars, "name"))
#>  [1] "Theon Greyjoy"      "Tyrion Lannister"   "Victarion Greyjoy" 
#>  [4] "Will"               "Areo Hotah"         "Chett"             
#>  [7] "Cressen"            "Arianne Martell"    "Daenerys Targaryen"
#> [10] "Davos Seaworth"     "Arya Stark"         "Arys Oakheart"     
#> [13] "Asha Greyjoy"       "Barristan Selmy"    "Varamyr"           
#> [16] "Brandon Stark"      "Brienne of Tarth"   "Catelyn Stark"     
#> [19] "Cersei Lannister"   "Eddard Stark"       "Jaime Lannister"   
#> [22] "Jon Connington"     "Jon Snow"           "Aeron Greyjoy"     
#> [25] "Kevan Lannister"    "Melisandre"         "Merrett Frey"      
#> [28] "Quentyn Martell"    "Samwell Tarly"      "Sansa Stark"
map_dfr(got_chars, `[`, c("name", "gender", "culture", "born"))
#> # A tibble: 30 × 4
#>    name               gender culture    born                                    
#>    <chr>              <chr>  <chr>      <chr>                                   
#>  1 Theon Greyjoy      Male   "Ironborn" "In 278 AC or 279 AC, at Pyke"          
#>  2 Tyrion Lannister   Male   ""         "In 273 AC, at Casterly Rock"           
#>  3 Victarion Greyjoy  Male   "Ironborn" "In 268 AC or before, at Pyke"          
#>  4 Will               Male   ""         ""                                      
#>  5 Areo Hotah         Male   "Norvoshi" "In 257 AC or before, at Norvos"        
#>  6 Chett              Male   ""         "At Hag's Mire"                         
#>  7 Cressen            Male   ""         "In 219 AC or 220 AC"                   
#>  8 Arianne Martell    Female "Dornish"  "In 276 AC, at Sunspear"                
#>  9 Daenerys Targaryen Female "Valyrian" "In 284 AC, at Dragonstone"             
#> 10 Davos Seaworth     Male   "Westeros" "In 260 AC or before, at King's Landing"
#> # … with 20 more rows
…
